…
```
## See spec(...) for full column specifications.
```

```
## # A tibble: 188 × 83
##           Site Habitat Season Chgouldii Chmorio `CG/Mormlp` MormII
##          <chr>   <int>  <int>     <int>   <int>       <int>  <int>
## 1  Albert Park       1      1       151       0           6      0
## 2  Albert Park       1      2        38       2           1      0
## 3        Amber       1      1         3      10           0      0
## 4        Amber       1      2         6       9           1      0
## 5        Avoca       1      1         0       0           0      0
## 6        Avoca       1      2        13      72           1      0
## 7        Banjo       1      1        52       3           0      0
## 8        Banjo       1      2        17       0           1      0
## 9    Blackburn       1      1       117       1           7      1
## 10   Blackburn       1      2         0       1           0      0
## # ... with 178 more rows, and 76 more variables: Mschocean <int>,
## #   Nyctspp <int>, Mmacropus <int>, `Nspp/Mmacr` <int>, Scotspp. <int>,
## #   Taustralis <int>, Vdarlingtoni <int>, Vregulus <int>,
## #   Vvulturnus <int>, Unidentified <int>, BatSpecies <int>,
## #   BatActivity <int>, Col <int>, Dip <int>, Eph <int>, Hem <int>,
## #   Lep <int>, Hym <int>, Tri <int>, Manto <int>, Psoc <int>, Orth <int>,
## #   Neur <int>, Derm <int>, Bla <int>, Iso <int>, Odo <int>, Plec <int>,
## #   Insectabundance <int>, TotalOrder <int>, Moon <int>, NatEx <int>,
## #   Bioregion <int>, Size <dbl>, SQQ <dbl>, `Water Depth` <dbl>, `Imp
…
```
## Parsed with column specification:
## cols(
##   Sepal.Length = col_double(),
##   Sepal.Width = col_double(),
##   Petal.Length = col_double(),
##   Petal.Width = col_double(),
##   Species = col_character()
## )
```

```
## # A tibble: 150 × 5
##    Sepal.Length Sepal.Width Petal.Length Petal.Width Species
##           <dbl>       <dbl>        <dbl>       <dbl>   <chr>
## 1           5.1         3.5          1.4         0.2  setosa
## 2           4.9         3.0          1.4         0.2  setosa
## 3           4.7         3.2          1.3         0.2  setosa
## 4           4.6         3.1          1.5         0.2  setosa
## 5           5.0         3.6          1.4         0.2  setosa
## 6           5.4         3.9          1.7         0.4  setosa
## 7           4.6         3.4          1.4         0.3  setosa
## 8           5.0         3.4          1.5         0.2  setosa
## 9           4.4         2.9          1.4         0.2  setosa
## 10          4.9         3.1          1.5         0.1  setosa
## # ... with 140 more rows
```
…
```
## Parsed with column specification:
## cols(
##   Sepal.Length = col_double(),
##   Sepal.Width = col_double(),
##   Petal.Length = col_double(),
##   Petal.Width = col_double(),
##   Species = col_character()
## )
```

```
## # A tibble: 150 × 5
##    Sepal.Length Sepal.Width Petal.Length Petal.Width Species
##           <dbl>       <dbl>        <dbl>       <dbl>   <chr>
## 1           5.1         3.5          1.4         0.2  setosa
## 2           4.9         3.0          1.4         0.2  setosa
## 3           4.7         3.2          1.3         0.2  setosa
## 4           4.6         3.1          1.5         0.2  setosa
## 5           5.0         3.6          1.4         0.2  setosa
## 6           5.4         3.9          1.7         0.4  setosa
## 7           4.6         3.4          1.4         0.3  setosa
## 8           5.0         3.4          1.5         0.2  setosa
## 9           4.4         2.9          1.4         0.2  setosa
## 10          4.9         3.1          1.5         0.1  setosa
## # ... with 140 more rows
```
…
```r
read_csv("./data/iris.csv", comment = "#", 
         col_types = cols(
                 Sepal.Length = col_double(),
                 Sepal.Width = col_double(),
                 Petal.Length = col_double(),
                 Petal.Width = col_double(),
                 Species = col_factor(c("setosa", "versicolor", "virginica"))
         ))
```

```
## # A tibble: 150 × 5
##    Sepal.Length Sepal.Width Petal.Length Petal.Width Species
##           <dbl>       <dbl>        <dbl>       <dbl>  <fctr>
## 1           5.1         3.5          1.4         0.2  setosa
## 2           4.9         3.0          1.4         0.2  setosa
## 3           4.7         3.2          1.3         0.2  setosa
## 4           4.6         3.1          1.5         0.2  setosa
## 5           5.0         3.6          1.4         0.2  setosa
## 6           5.4         3.9          1.7         0.4  setosa
## 7           4.6         3.4          1.4         0.3  setosa
## 8           5.0         3.4          1.5         0.2  setosa
## 9           4.4         2.9          1.4         0.2  setosa
## 10          4.9         3.1          1.5         0.1  setosa
## # ... with 140 more rows
```
…
```r
dplyr::tbl_df(iris) # Much better!
```

```
## # A tibble: 150 × 5
##    Sepal.Length Sepal.Width Petal.Length Petal.Width Species
##           <dbl>       <dbl>        <dbl>       <dbl>  <fctr>
## 1           5.1         3.5          1.4         0.2  setosa
## 2           4.9         3.0          1.4         0.2  setosa
## 3           4.7         3.2          1.3         0.2  setosa
## 4           4.6         3.1          1.5         0.2  setosa
## 5           5.0         3.6          1.4         0.2  setosa
## 6           5.4         3.9          1.7         0.4  setosa
## 7           4.6         3.4          1.4         0.3  setosa
## 8           5.0         3.4          1.5         0.2  setosa
## 9           4.4         2.9          1.4         0.2  setosa
## 10          4.9         3.1          1.5         0.1  setosa
## # ... with 140 more rows
```
…
