…
Importantly, dplyr functions don't have side-effects, this means that the your data wrangling won't update the object you are working with unless you use the assignment operator `<-` to overwrite that object, or write to a new object.

**Subsetting Observations (rows)**

Let's subset only the rows where Season is equal to 1. We use the `dplyr::filter()` function. 
- The first argument is the data frame we wish to filter through. 
- The second argument is a logical expression (two or more values separated by the [logical operators](https://stat.ethz.ch/R-manual/R-devel/library/base/html/Logic.html): `==`, `!=`, `&`, `|`, etc., returning a logical, `TRUE` or `FALSE`). Try in console: `?Comparison` or `?base::logic`.


```r
dplyr::filter(.data = bat_dat, Season == 1)
```

```
## # A tibble: 94 × 83
##           Site Habitat Season Chgouldii Chmorio `CG/Mormlp` MormII
##          <chr>   <int>  <int>     <int>   <int>       <int>  <int>
## 1  Albert Park       1      1       151       0           6      0
## 2        Amber       1      1         3      10           0      0
## 3        Avoca       1      1         0       0           0      0
## 4        Banjo       1      1        52       3           0      0
## 5    Blackburn       1      1       117       1           7      1
## 6    Boardwalk       1      1         0       0           0      0
## 7      Bonview       1      1       120     158           2      0
## 8     Botanica       1      1       206      13           0      0
## 9     Braeside       1      1        28      38           1      0
## 10    Brighton       1      1       253      49          20      0
## # ... with 84 more rows, and 76 more variables: Mschocean <int>,
## #   Nyctspp <int>, Mmacropus <int>, `Nspp/Mmacr` <int>, Scotspp. <int>,
## #   Taustralis <int>, Vdarlingtoni <int>, Vregulus <int>,
## #   Vvulturnus <int>, Unidentified <int>, BatSpecies <int>,
## #   BatActivity <int>, Col <int>, Dip <int>, Eph <int>, Hem <int>,
## #   Lep <int>, Hym <int>, Tri <int>, Manto <int>, Psoc <int>, Orth <int>,
## #   Neur <int>, Derm <int>, Bla <int>, Iso <int>, Odo <int>, Plec <int>,
## #   Insectabundance <int>, TotalOrder <int>, Moon <int>, NatEx <int>,
## #   Bioregion <int>, Size <dbl>, SQQ <dbl>, `Water Depth` <dbl>, `Imp
…
You can filter based on multiple variables. Let's get the sites from `Season 1`, and where there were more than 100 recordings of `Chgouldii`. How many sites are there where this was the case?


```r
dplyr::filter(.data = bat_dat, Season == 1, Chgouldii > 100)
```

```
## # A tibble: 25 × 83
##           Site Habitat Season Chgouldii Chmorio `CG/Mormlp` MormII
##          <chr>   <int>  <int>     <int>   <int>       <int>  <int>
## 1  Albert Park       1      1       151       0           6      0
## 2    Blackburn       1      1       117       1           7      1
## 3      Bonview       1      1       120     158           2      0
## 4     Botanica       1      1       206      13           0      0
## 5     Brighton       1      1       253      49          20      0
## 6     Bundoora       1      1       121      13           2      0
## 7   Canterbury       1      1       210      25           2      4
## 8    Elizabeth       1      1       534      26          14      0
## 9  Ferny Crrek       1      1       226      65           3      6
## 10  Jackropper       1      1       137       1           1      0
## # ... with 15 more rows, and 76 more variables: Mschocean <int>,
## #   Nyctspp <int>, Mmacropus <int>, `Nspp/Mmacr` <int>, Scotspp. <int>,
## #   Taustralis <int>, Vdarlingtoni <int>, Vregulus <int>,
## #   Vvulturnus <int>, Unidentified <int>, BatSpecies <int>,
## #   BatActivity <int>, Col <int>, Dip <int>, Eph <int>, Hem <int>,
## #   Lep <int>, Hym <int>, Tri <int>, Manto <int>, Psoc <int>, Orth <int>,
## #   Neur <int>, Derm <int>, Bla <int>, Iso <int>, Odo <int>, Plec <int>,
## #   Insectabundance <int>, TotalOrder <int>, Moon <int>, NatEx <int>,
## #   Bioregion <int>, Size <dbl>, SQQ <dbl>, `Water Depth` <dbl>, `Imp
…
Here are three other very useful filtering functions:

1. Remove duplicate rows with `dplyr::distinct()`

```r
distinct(bat_dat) #no optional args given, uses all variables
```

```
## # A tibble: 188 × 83
##           Site Habitat Season Chgouldii Chmorio `CG/Mormlp` MormII
##          <chr>   <int>  <int>     <int>   <int>       <int>  <int>
## 1  Albert Park       1      1       151       0           6      0
## 2  Albert Park       1      2        38       2           1      0
## 3        Amber       1      1         3      10           0      0
## 4        Amber       1      2         6       9           1      0
## 5        Avoca       1      1         0       0           0      0
## 6        Avoca       1      2        13      72           1      0
## 7        Banjo       1      1        52       3           0      0
## 8        Banjo       1      2        17       0           1      0
## 9    Blackburn       1      1       117       1           7      1
## 10   Blackburn       1      2         0       1           0      0
## # ... with 178 more rows, and 76 more variables: Mschocean <int>,
## #   Nyctspp <int>, Mmacropus <int>, `Nspp/Mmacr` <int>, Scotspp. <int>,
## #   Taustralis <int>, Vdarlingtoni <int>, Vregulus <int>,
## #   Vvulturnus <int>, Unidentified <int>, BatSpecies <int>,
## #   BatActivity <int>, Col <int>, Dip <int>, Eph <int>, Hem <int>,
## #   Lep <int>, Hym <int>, Tri <int>, Manto <int>, Psoc <int>, Orth <int>,
## #   Neur <int>, Derm <int>, Bla <int>, Iso <int>, Odo <int>, Plec <int>,
## #   Insectabundance <int>, TotalOrder <int>, Moon <int>, NatEx <int>,
## #   Bioregion <int>, Size <dbl>, SQQ <dbl>, `Water Depth` <dbl>, `Imp
…
```r
distinct(bat_dat, Site) # give a variable as an argument, that var will determine uniqueness
```

```
## # A tibble: 94 × 1
##           Site
##          <chr>
## 1  Albert Park
## 2        Amber
## 3        Avoca
## 4        Banjo
## 5    Blackburn
## 6    Boardwalk
## 7      Bonview
## 8     Botanica
## 9     Braeside
## 10    Brighton
## # ... with 84 more rows
```
…
**Subsetting Variables (Columns)**

Let's get only the following columns with `dplyr::select()`: `Site`, `Habitat`, `Season`, `Chgouldii`


```r
dplyr::select(bat_dat, Site, Habitat, Season, Chgouldii)
```

```
## # A tibble: 188 × 4
##           Site Habitat Season Chgouldii
##          <chr>   <int>  <int>     <int>
## 1  Albert Park       1      1       151
## 2  Albert Park       1      2        38
## 3        Amber       1      1         3
## 4        Amber       1      2         6
## 5        Avoca       1      1         0
## 6        Avoca       1      2        13
## 7        Banjo       1      1        52
## 8        Banjo       1      2        17
## 9    Blackburn       1      1       117
## 10   Blackburn       1      2         0
## # ... with 178 more rows
```
We can also tell R that we wish it to drop some variables from our data:

```r
dplyr::select(bat_dat, -Humidity)
```

```
## # A tibble: 188 × 82
##           Site Habitat Season Chgouldii Chmorio `CG/Mormlp` MormII
##          <chr>   <int>  <int>     <int>   <int>       <int>  <int>
## 1  Albert Park       1      1       151       0           6      0
## 2  Albert Park       1      2        38       2           1      0
## 3        Amber       1      1         3      10           0      0
## 4        Amber       1      2         6       9           1      0
## 5        Avoca       1      1         0       0           0      0
## 6        Avoca       1      2        13      72           1      0
## 7        Banjo       1      1        52       3           0      0
## 8        Banjo       1      2        17       0           1      0
## 9    Blackburn       1      1       117       1           7      1
## 10   Blackburn       1      2         0       1           0      0
## # ... with 178 more rows, and 75 more variables: Mschocean <int>,
## #   Nyctspp <int>, Mmacropus <int>, `Nspp/Mmacr` <int>, Scotspp. <int>,
## #   Taustralis <int>, Vdarlingtoni <int>, Vregulus <int>,
## #   Vvulturnus <int>, Unidentified <int>, BatSpecies <int>,
## #   BatActivity <int>, Col <int>, Dip <int>, Eph <int>, Hem <int>,
## #   Lep <int>, Hym <int>, Tri <int>, Manto <int>, Psoc <int>, Orth <int>,
## #   Neur <int>, Derm <int>, Bla <int>, Iso <int>, Odo <int>, Plec <int>,
## #   Insectabundance <int>, TotalOrder <int>, Moon <int>, NatEx <int>,
## #   Bioregion <int>, Size <dbl>, SQQ <dbl>, `Water Depth` <dbl>, `Imp
…
As well as using the bare column names to select a variable. We can also use a suite of helper functions to match column names. This is useful when we have many variables we wish to subset by, but want to minimise typing. For the full suite of helper functions, type `?select` in the console. Some important ones are:

- `contains()`
- `ends_with()`
- `starts_with()`
- `matches()`


```r
select(bat_dat, starts_with("dist")) # not case sensitive unless we tell R so
```

```
## # A tibble: 188 × 5
##    Distriver Distwetland Distwater Distbushland Distance1sttree
##        <dbl>       <dbl>     <dbl>        <dbl>           <dbl>
## 1   2411.968     1931.92   1931.92      2546.05            15.0
## 2   2411.968     1931.92   1931.92      2546.05            15.0
## 3   1846.673       48.64     48.64      2135.00             0.5
## 4   1846.673       48.64     48.64      2135.00             0.5
## 5  12985.551     1143.16   1143.16      1532.92             1.0
## 6  12985.551     1143.16   1143.16      1532.92             1.0
## 7  23095.009      568.71    568.71      5416.28             1.0
## 8  23095.009      568.71    568.71      5416.28             1.0
## 9   7816.414     2615.07   2615.07       855.73             2.0
## 10  7816.414     2615.07   2615.07       855.73             2.0
## # ... with 178 more rows
```

**Alter existing or create new variables with `mutate()`**
After the first data frame argument, `mutate()` takes one or more name-value pairs.
Which is simply the name of a new or existing variable, followed by an `=` and some expression making computations from existing variables.

- Add new variables:
Let's compute the sum of the counts for `Taustralis` and `Vdarlingtoni` species (call `View` for easy )

```r
dplyr::mutate(bat_dat, Taust_Vdarl = Taustralis + Vdarlingtoni)
```

```
## # A tibble: 188 × 84
##           Site Habitat Season Chgouldii Chmorio `CG/Mormlp` MormII
##          <chr>   <int>  <int>     <int>   <int>       <int>  <int>
## 1  Albert Park       1      1       151       0           6      0
## 2  Albert Park       1      2        38       2           1      0
## 3        Amber       1      1         3      10           0      0
## 4        Amber       1      2         6       9           1      0
## 5        Avoca       1      1         0       0           0      0
## 6        Avoca       1      2        13      72           1      0
## 7        Banjo       1      1        52       3           0      0
## 8        Banjo       1      2        17       0           1      0
## 9    Blackburn       1      1       117       1           7      1
## 10   Blackburn       1      2         0       1           0      0
## # ... with 178 more rows, and 77 more variables: Mschocean <int>,
## #   Nyctspp <int>, Mmacropus <int>, `Nspp/Mmacr` <int>, Scotspp. <int>,
## #   Taustralis <int>, Vdarlingtoni <int>, Vregulus <int>,
## #   Vvulturnus <int>, Unidentified <int>, BatSpecies <int>,
## #   BatActivity <int>, Col <int>, Dip <int>, Eph <int>, Hem <int>,
## #   Lep <int>, Hym <int>, Tri <int>, Manto <int>, Psoc <int>, Orth <int>,
## #   Neur <int>, Derm <int>, Bla <int>, Iso <int>, Odo <int>, Plec <int>,
## #   Insectabundance <int>, TotalOrder <int>, Moon <int>, NatEx <int>,
## #   Bioregion <int>, Size <dbl>, SQQ <dbl>, `Water Depth` <dbl>, `Imp
…
To alter an existing variable we use the name of that variable in the name-value pair argument to `mutate()`, and then provide some computation to that variable on the right.

Imagine there was an error at some point during data collation and a decimal place was shifted, let's pretend it was for the variable `House500`. 



```r
mutate(bat_dat, House500 = House500 / 10)
```

```
## # A tibble: 188 × 83
##           Site Habitat Season Chgouldii Chmorio `CG/Mormlp` MormII
##          <chr>   <int>  <int>     <int>   <int>       <int>  <int>
## 1  Albert Park       1      1       151       0           6      0
## 2  Albert Park       1      2        38       2           1      0
## 3        Amber       1      1         3      10           0      0
## 4        Amber       1      2         6       9           1      0
## 5        Avoca       1      1         0       0           0      0
## 6        Avoca       1      2        13      72           1      0
## 7        Banjo       1      1        52       3           0      0
## 8        Banjo       1      2        17       0           1      0
## 9    Blackburn       1      1       117       1           7      1
## 10   Blackburn       1      2         0       1           0      0
## # ... with 178 more rows, and 76 more variables: Mschocean <int>,
## #   Nyctspp <int>, Mmacropus <int>, `Nspp/Mmacr` <int>, Scotspp. <int>,
## #   Taustralis <int>, Vdarlingtoni <int>, Vregulus <int>,
## #   Vvulturnus <int>, Unidentified <int>, BatSpecies <int>,
## #   BatActivity <int>, Col <int>, Dip <int>, Eph <int>, Hem <int>,
## #   Lep <int>, Hym <int>, Tri <int>, Manto <int>, Psoc <int>, Orth <int>,
## #   Neur <int>, Derm <int>, Bla <int>, Iso <int>, Odo <int>, Plec <int>,
## #   Insectabundance <int>, TotalOrder <int>, Moon <int>, NatEx <int>,
## #   Bioregion <int>, Size <dbl>, SQQ <dbl>, `Water Depth` <dbl>, `Imp
…
**Renaming variables**

`dplyr::rename()` takes a comma-separated list of unquoted expressions. On the left-hand side of the expression, you provide the new name of the variable, on the right hand side the current column name.


```r
rename(bat_dat, Cg = Chgouldii, Cm = Chmorio)
```

```
## # A tibble: 188 × 83
##           Site Habitat Season    Cg    Cm `CG/Mormlp` MormII Mschocean
##          <chr>   <int>  <int> <int> <int>       <int>  <int>     <int>
## 1  Albert Park       1      1   151     0           6      0         0
## 2  Albert Park       1      2    38     2           1      0         1
## 3        Amber       1      1     3    10           0      0         0
## 4        Amber       1      2     6     9           1      0         0
## 5        Avoca       1      1     0     0           0      0         0
## 6        Avoca       1      2    13    72           1      0         0
## 7        Banjo       1      1    52     3           0      0         0
## 8        Banjo       1      2    17     0           1      0         0
## 9    Blackburn       1      1   117     1           7      1         0
## 10   Blackburn       1      2     0     1           0      0         0
## # ... with 178 more rows, and 75 more variables: Nyctspp <int>,
## #   Mmacropus <int>, `Nspp/Mmacr` <int>, Scotspp. <int>, Taustralis <int>,
## #   Vdarlingtoni <int>, Vregulus <int>, Vvulturnus <int>,
## #   Unidentified <int>, BatSpecies <int>, BatActivity <int>, Col <int>,
## #   Dip <int>, Eph <int>, Hem <int>, Lep <int>, Hym <int>, Tri <int>,
## #   Manto <int>, Psoc <int>, Orth <int>, Neur <int>, Derm <int>,
## #   Bla <int>, Iso <int>, Odo <int>, Plec <int>, Insectabundance <int>,
## #   TotalOrder <int>, Moon <int>, NatEx <int>, Bioregion <int>,
## #   Size <dbl>, SQQ <dbl>, `Water Depth` <dbl>, `Imp 5km` <dbl>,
…
```r
bat_dat %>%
        select(1:4) %>%
        group_by(Season) %>%
        mutate(bin_Cg = ntile(Chgouldii,n = 5)) %>%
        arrange(Season, bin_Cg)
```

```
## Source: local data frame [188 x 5]
## Groups: Season [2]
## 
##         Site Habitat Season Chgouldii bin_Cg
##        <chr>   <int>  <int>     <int>  <int>
## 1      Amber       1      1         3      1
## 2      Avoca       1      1         0      1
## 3  Boardwalk       1      1         0      1
## 4     Cherry       1      1         0      1
## 5  Edithvale       1      1         4      1
## 6      Epsom       1      1         0      1
## 7    Landcox       1      1         0      1
## 8  Shankland       1      1         0      1
## 9    Tim Nev       1      1         2      1
## 10 Truganina       1      1         0      1
## # ... with 178 more rows
```
…
